Bagging and Boosting
…
home_sales_nyc <- read_csv("https://raw.githubusercontent.com/DataScienceForPublicPolicy/data-sets/refs/heads/master/data/home_sales_nyc.csv")

Rows: 12668 Columns: 15
── Column specification ────────────────────────────────────────────────────────
Delimiter: ","
chr   (2): neighborhood, building.class.category
dbl  (12): time.index, borough, zip.code, residential.units, commercial.unit...
date  (1): sale.date

ℹ Use `spec()` to retrieve the full column specification for this data.
ℹ Specify the column types or set `show_col_types = FALSE` to quiet this message.

home_sales_nyc

# A tibble: 12,668 × 15
   time.index borough neighborhood building.class.category zip.code
        <dbl>   <dbl> <chr>        <chr>                      <dbl>
 1         14       2 BATHGATE     01 ONE FAMILY DWELLINGS    10457
 2        162       2 BATHGATE     01 ONE FAMILY DWELLINGS    10457
 3        298       2 BATHGATE     01 ONE FAMILY DWELLINGS    10457
 4        179       2 BATHGATE     01 ONE FAMILY DWELLINGS    10457
 5        336       2 BATHGATE     01 ONE FAMILY DWELLINGS    10457
 6        291       2 BATHGATE     01 ONE FAMILY DWELLINGS    10457
 7        190       2 BATHGATE     01 ONE FAMILY DWELLINGS    10458
 8        197       2 BATHGATE     01 ONE FAMILY DWELLINGS    10458
 9         44       2 BATHGATE     01 ONE FAMILY DWELLINGS    10457
10        189       2 BATHGATE     01 ONE FAMILY DWELLINGS    10457
# ℹ 12,658 more rows
# ℹ 10 more variables: residential.units <dbl>, commercial.units <dbl>,
#   total.units <dbl>, land.square.feet <dbl>, gross.square.feet <dbl>,
#   year.built <dbl>, sale.price <dbl>, sale.date <date>, sale.year <dbl>,
#   age <dbl>
…
